{
    "primary_datacenter": "{{ consul_datacenter }}",
    "datacenter": "{{ consul_datacenter }}",
    "client_addr": "0.0.0.0",
    "data_dir": "{{ consul_data_dir }}",
    "encrypt": "{{ consul_encrypt }}",
    "retry_join": ["{{ consul_server | join('", "') }}"],
    "enable_local_script_checks": true,
    "rejoin_after_leave": true,
    "leave_on_terminate": false,
    "performance": {
        "raft_multiplier": 1
    },
    "telemetry": {
        "prometheus_retention_time": "5s"
    },
    "acl": {
        "enabled": true,
        "default_policy": "deny",
        "down_policy": "extend-cache"
        {% if agent_token is defined %}
        ,"tokens": { 
            "agent": "{{ agent_token.stdout }}" 
        }
        {% endif %}
    }
}