{
    "service": {
        "id": "kafka",
        "name": "kafka",
        "address": "{{ ansible_host }}",
        "token": "{{ agent_token.stdout }}",
        "port": 9092,
        "checks": [
            {
                "id": "kafka-service",
                "name": "Kafka Service Status",
                "args": ["service", "kafka", "status"],
                "interval": "10s",
                "timeout": "1s"
            },
            {
                "id": "kafka-zookeeper-service",
                "name": "Kafka Zookeper Service Status",
                "args": ["service", "kafka-zookeeper", "status"],
                "interval": "10s",
                "timeout": "1s"
            },
            {
                "id": "kafka-connection",
                "name": "Kafka Connection Status",
                "tcp": "{{ ansible_host }}:9092",
                "interval": "10s",
                "timeout": "1s"
            },
            {
                "id": "kafka-zookeper-connection",
                "name": "Kafka Zookeper Connection",
                "tcp": "{{ ansible_host }}:2181",
                "interval": "10s",
                "timeout": "1s"
            }
        ]
    }
}