{
    "service": {
        "id": "postgresql",
        "name": "postgresql",
        "address": "{{ ansible_host }}",
        "token": "{{ agent_token.stdout }}",
        "port": 5432,
        "checks": [
            {
                "id": "postgresql-service",
                "name": "PostgreSQL Service Status",
                "args": ["service", "postgresql", "status"],
                "interval": "10s",
                "timeout": "1s"
            }, 
            {
                "id": "postgresql-connection",
                "name": "PostgreSQL Connection Status",
                "tcp": "{{ ansible_host }}:5432",
                "interval": "10s",
                "timeout": "1s"
            }
        ]
    }
}